{
    "urlBase": "res://raw",
    "type": "spherical",
    "keep": "all",
    "divisions":
    {
    	"preview": 50,
    	"panorama": 50
    },
    "images":
    {
        "preview": "room",
        "image": "room"
    },
    "camera":
    {
    	"keep": "all|~atvRange|~rotation|~fov",
        "atvMin": -90.0,
        "atvMax": 90.0,
        "vLookAt": 0.0,
        "hLookAt": 170.0
    },
    "hotspots":
	[
		{
			"id": 1,
			"atv": 40.0,
			"ath": 300.0,
			"width": 0.05,
			"height": 0.05,
			"image": "hotspot",
			"alpha": 0.8,
			"overAlpha": 1.0,
			"onClick": "lookAt(0.0, 170.0, true); load('res://raw/room', true, BLEND(2.0, 1.0), 0.0, 190.0)"
		}
	]
}